<svg xmlns="http://www.w3.org/2000/svg" viewBox="1072.9 -67.5 221.6 151.9">
  <ellipse cx="1183.7" cy="75.1" rx="110.8" ry="9.3" opacity=".1" fill="#205182"/>
  <path d="M1275.9 74.5h-184c-4.4 0-8-3.6-8-8v-124c0-4.4 3.6-8 8-8h184c4.4 0 8 3.6 8 8v124c0 4.4-3.5 8-8 8z" fill="#F4F5F5"/>
  <path d="M1275.9 76.5h-184c-5.5 0-10-4.5-10-10v-124c0-5.5 4.5-10 10-10h184c5.5 0 10 4.5 10 10v124c0 5.5-4.4 10-10 10zm-184-140c-3.3 0-6 2.7-6 6v124c0 3.3 2.7 6 6 6h184c3.3 0 6-2.7 6-6v-124c0-3.3-2.7-6-6-6h-184z" fill="#205182"/>
  <path d="M1283.9-45.5h-200v-12c0-4.4 3.6-8 8-8h184c4.4 0 8 3.6 8 8v12z" fill="#3774B1"/>
  <path d="M1285.9-43.5h-204v-14c0-5.5 4.5-10 10-10h184c5.5 0 10 4.5 10 10v14zm-200-4h196v-10c0-3.3-2.7-6-6-6h-184c-3.3 0-6 2.7-6 6v10z" fill="#205182"/>
  <path opacity=".2" fill="#205182" d="M1083.9-49.5h200v12h-200z"/>
  <circle cx="1095.9" cy="-55.5" r="1.5" fill="#EF5350"/>
  <circle cx="1101.4" cy="-55.5" r="1.5" fill="#FDBC1C"/>
  <circle cx="1106.9" cy="-55.5" r="1.5" fill="#52C2C3"/>
  <path d="M1144.8 75.6h-46c-2.2 0-4-1.8-4-4V-19c0-2.2 1.8-4 4-4h46c2.2 0 4 1.8 4 4v90.6c0 2.2-1.7 4-4 4zM1207.6 75.6h-46c-2.2 0-4-1.8-4-4V-19c0-2.2 1.8-4 4-4h46c2.2 0 4 1.8 4 4v90.6c0 2.2-1.8 4-4 4zM1269.3 75.6h-46c-2.2 0-4-1.8-4-4V-19c0-2.2 1.8-4 4-4h46c2.2 0 4 1.8 4 4v90.6c0 2.2-1.8 4-4 4z" fill="#205182" opacity=".1"/>
  <g opacity=".3">
    <path d="M1142.1 8.6h-40.5c-2.6 0-4.6-2.1-4.6-4.6v-15.9c0-2.6 2.1-4.6 4.6-4.6h40.5c2.6 0 4.6 2.1 4.6 4.6V4c0 2.5-2.1 4.6-4.6 4.6z" fill="#F4F5F5"/>
    <path d="M1142.1 9.6h-40.5c-3.1 0-5.6-2.5-5.6-5.6v-15.9c0-3.1 2.5-5.6 5.6-5.6h40.5c3.1 0 5.6 2.5 5.6 5.6V4c0 1.5-.6 2.9-1.7 4s-2.4 1.6-3.9 1.6zm-40.6-25.2c-2 0-3.6 1.6-3.6 3.6V3.9c0 2 1.6 3.6 3.6 3.6h40.5c1 0 1.9-.4 2.6-1.1.7-.7 1.1-1.6 1.1-2.6v-15.9c0-2-1.6-3.6-3.6-3.6h-40.6v.1z" fill="#205182"/>
    <path opacity=".2" fill="#205182" d="M1105.5-10.1h32.7v3.6h-32.7zM1105.5-2.1h25.7v3.2h-25.7z"/>
  </g>
  <g opacity=".3">
    <path d="M1142.1 38.8h-40.5c-2.6 0-4.6-2.1-4.6-4.6V18.3c0-2.6 2.1-4.6 4.6-4.6h40.5c2.6 0 4.6 2.1 4.6 4.6v15.9c0 2.5-2.1 4.6-4.6 4.6z" fill="#F4F5F5"/>
    <path d="M1142.1 39.8h-40.5c-3.1 0-5.6-2.5-5.6-5.6V18.3c0-3.1 2.5-5.6 5.6-5.6h40.5c3.1 0 5.6 2.5 5.6 5.6v15.9c0 1.5-.6 2.9-1.7 4-1 1-2.4 1.6-3.9 1.6zm-40.6-25.2c-2 0-3.6 1.6-3.6 3.6v15.9c0 2 1.6 3.6 3.6 3.6h40.5c1 0 1.9-.4 2.6-1.1.7-.7 1.1-1.6 1.1-2.6V18.1c0-2-1.6-3.6-3.6-3.6h-40.6v.1z" fill="#205182"/>
    <path opacity=".2" fill="#205182" d="M1105.5 20.1h32.7v3.6h-32.7zM1105.5 28.2h25.7v3.2h-25.7z"/>
  </g>
  <g>
    <path fill="none" d="M1108.4 1.7h28.7"/>
    <path fill="#205182" d="M1108.4-.3h20.1v4h-20.1z"/>
    <path fill="#205182" d="M1126.7 7.7l10.4-6-10.4-6"/>
    <g>
      <path d="M1196.1 8.5h-49.8c-3 0-5.4-2.4-5.4-5.4v-16.9c0-3 2.4-5.4 5.4-5.4h49.8c3 0 5.4 2.4 5.4 5.4V3.1c-.1 3-2.5 5.4-5.4 5.4z" fill="#F4F5F5"/>
      <path d="M1196.1 10.5h-49.8c-4.1 0-7.4-3.3-7.4-7.4v-16.9c0-4.1 3.3-7.4 7.4-7.4h49.8c4.1 0 7.4 3.3 7.4 7.4V3.1c0 2-.8 3.8-2.2 5.2-1.4 1.4-3.3 2.2-5.2 2.2zm-49.8-27.6c-1.9 0-3.4 1.5-3.4 3.4V3.1c0 1.9 1.5 3.4 3.4 3.4h49.8c.9 0 1.7-.3 2.4-1s1-1.5 1-2.4v-16.9c0-1.9-1.5-3.4-3.4-3.4h-49.8v.1z" fill="#205182"/>
      <path opacity=".2" fill="#205182" d="M1151.4-12.1h39.7v4.2h-39.7zM1151.4-3.3h31.2V.4h-31.2z"/>
    </g>
  </g>
</svg>
